(footprint "Microcontroller_STM32G041J6M6_SO8N" (version 20221018) (generator pcbnew)
  (layer "F.Cu")
  (tags "SO8N 8SOIC SOIC-8")
  (attr smd)
  (fp_text reference "REF**" (at 0 -3.5) (layer "F.SilkS")
      (effects (font (size 1 1) (thickness 0.15)))
    (tstamp 1927664c-d4f5-47ae-a2ba-ff22aa98da10)
  )
  (fp_text value "SO8N" (at 0 3.6) (layer "F.Fab")
      (effects (font (size 1 1) (thickness 0.15)))
    (tstamp ba63e1f5-0ade-47a1-8479-8a2b2af0fce3)
  )
  (fp_text user "${REFERENCE}" (at 0 0) (layer "F.Fab")
      (effects (font (size 1 1) (thickness 0.15)))
    (tstamp b533d202-b04e-42ab-9365-795e730feb44)
  )
  (fp_line (start -2.25 2.5) (end -2.25 2.75)
    (stroke (width 0.1) (type default)) (layer "F.SilkS") (tstamp 88d308c5-0aad-4b26-bdf9-dce21f2def66))
  (fp_line (start -2.25 2.75) (end -1.5 2.75)
    (stroke (width 0.1) (type default)) (layer "F.SilkS") (tstamp fe08735d-fd46-4ec1-96d7-9f6f188d9884))
  (fp_line (start -2 -2.75) (end -1.5 -2.75)
    (stroke (width 0.1) (type default)) (layer "F.SilkS") (tstamp ecae5e7c-bfdd-4f05-8a65-f44c2f8e8fcb))
  (fp_line (start 1.5 -2.75) (end 2.25 -2.75)
    (stroke (width 0.1) (type default)) (layer "F.SilkS") (tstamp 9ae4ec63-0592-4621-92fd-1ddf0da388fc))
  (fp_line (start 1.5 2.75) (end 2.25 2.75)
    (stroke (width 0.1) (type default)) (layer "F.SilkS") (tstamp ec6eae7f-43a5-4991-984f-35c245a7cba1))
  (fp_line (start 2.25 -2.75) (end 2.25 -2.5)
    (stroke (width 0.1) (type default)) (layer "F.SilkS") (tstamp 4c159a9a-8283-4f8b-87aa-cae781eeacbb))
  (fp_line (start 2.25 2.75) (end 2.25 2.5)
    (stroke (width 0.1) (type default)) (layer "F.SilkS") (tstamp b037674b-2347-49a6-9a24-01e637804f0e))
  (fp_poly
    (pts
      (xy -2.5 -2.75)
      (xy -2.75 -3)
      (xy -2.25 -3)
    )

    (stroke (width 0.1) (type solid)) (fill solid) (layer "F.SilkS") (tstamp 3037b4c5-7adc-4751-8206-35926e2fb290))
  (fp_line (start -3.5 -2.7) (end 3.5 -2.7)
    (stroke (width 0.05) (type solid)) (layer "F.CrtYd") (tstamp 35394112-b17b-4682-b97f-fe33b650c8f0))
  (fp_line (start -3.5 2.7) (end -3.5 -2.7)
    (stroke (width 0.05) (type solid)) (layer "F.CrtYd") (tstamp d9ffa29d-70ca-4ae2-8838-4ad731d8efce))
  (fp_line (start 3.5 -2.7) (end 3.5 2.7)
    (stroke (width 0.05) (type solid)) (layer "F.CrtYd") (tstamp fbfd7f46-9c35-4723-b977-15b64fa80620))
  (fp_line (start 3.5 2.7) (end -3.5 2.7)
    (stroke (width 0.05) (type solid)) (layer "F.CrtYd") (tstamp 822678b3-4561-4f0b-a37b-5b437f0380f2))
  (fp_line (start -1.95 -2.45) (end -1.95 2.45)
    (stroke (width 0.1) (type solid)) (layer "F.Fab") (tstamp 58567bd4-7e38-4f68-a8cb-d9145f87e5c1))
  (fp_line (start -1.95 -2.45) (end 1.95 -2.45)
    (stroke (width 0.1) (type solid)) (layer "F.Fab") (tstamp 99fb22f4-0a1c-4024-a9e5-687a985d972d))
  (fp_line (start -1.95 2.45) (end 1.95 2.45)
    (stroke (width 0.1) (type solid)) (layer "F.Fab") (tstamp da2c1694-77ec-488c-bd4a-4a14b1f3235e))
  (fp_line (start 1.95 -2.45) (end 1.95 2.45)
    (stroke (width 0.1) (type solid)) (layer "F.Fab") (tstamp a8c8493a-353d-437b-95c0-c0dac891c3f4))
  (pad "1" smd rect (at -2.65 -1.905) (size 1.4 0.6) (layers "F.Cu" "F.Paste" "F.Mask") (tstamp 29ec7129-c03d-4d44-b2c3-09e3bb502182))
  (pad "2" smd rect (at -2.65 -0.635) (size 1.4 0.6) (layers "F.Cu" "F.Paste" "F.Mask") (tstamp bb4d4f23-a072-48c3-a096-4e267f42046d))
  (pad "3" smd rect (at -2.65 0.635) (size 1.4 0.6) (layers "F.Cu" "F.Paste" "F.Mask") (tstamp 97db9b5d-2037-4cda-aae2-aa1a02947488))
  (pad "4" smd rect (at -2.65 1.905) (size 1.4 0.6) (layers "F.Cu" "F.Paste" "F.Mask") (tstamp dd1ad475-3212-4e5f-9e90-4d92f042419a))
  (pad "5" smd rect (at 2.65 1.905) (size 1.4 0.6) (layers "F.Cu" "F.Paste" "F.Mask") (tstamp a5824847-7ca2-44d1-b148-d160bd6c9d72))
  (pad "6" smd rect (at 2.65 0.635) (size 1.4 0.6) (layers "F.Cu" "F.Paste" "F.Mask") (tstamp 29bee2d2-53b0-4e82-8171-c8eb1ac3922e))
  (pad "7" smd rect (at 2.65 -0.635) (size 1.4 0.6) (layers "F.Cu" "F.Paste" "F.Mask") (tstamp 62233c80-4aba-4d1b-86f8-a4f4420fe610))
  (pad "8" smd rect (at 2.65 -1.905) (size 1.4 0.6) (layers "F.Cu" "F.Paste" "F.Mask") (tstamp 8b17d1c2-7934-45ab-8740-3ff19c5f5da5))
  (model "${AALTO_FABLAB}/AaltoFablab.3dshapes/Microcontroller_STM32G041J6M6_SO8N.step"
    (offset (xyz 0 0 0))
    (scale (xyz 1 1 1))
    (rotate (xyz 0 0 0))
  )
)
